24,24
N,N,N,N,N,N,N,N,N,N,S,RS,RW,S,N,N,N,N,N,N,N,N,N,N
N,N,N,N,N,N,N,N,N,N,S,RS,RN,S,N,N,N,N,N,N,N,N,N,N
N,N,N,N,N,N,N,N,N,N,S,RS,RN,S,N,N,N,N,N,N,N,N,N,N
N,N,N,N,N,N,N,N,N,S,S,RS,RN,S,N,N,N,N,N,N,N,N,N,N
N,N,N,N,N,N,N,N,N,S,S,RS,RN,SBS[131|2],N,N,N,N,N,N,N,N,N,N
N,N,N,N,N,N,N,N,N,S,S,RS,RN,S,N,N,N,N,N,N,N,N,N,N
N,N,N,N,N,N,N,N,N,S,PE,RS,RN,S,N,N,N,N,N,N,N,N,N,N
N,N,N,N,N,N,N,N,N,S,PE,RS,RN,S,N,N,N,N,N,N,N,N,N,N
N,N,N,N,N,N,N,N,N,S,S,RS,RN,S,N,N,N,N,N,N,N,N,N,N
N,N,N,N,N,N,N,N,N,S,S,RS,RN,S,S,S,S,S,S,S,S,S,S,S
S,S,S,S,S,S,S,S,S,S,S,RSC[0;11;14],RNC[0;11;14],S,S,S,S,S,S,S,S,S,S,S
RS,RW,RW,RW,RW,RW,RW,RW,RW,RW,RWC[1;9;11],RSW,RNW,RWC[1;14;12],RW,RW,RW,RW,RW,RW,RW,RW,RW,RW
RE,RE,RE,RE,RE,RE,RE,RE,RE,RE,REC[1;9;11],RSE,RNE,REC[1;14;12],RSE,RE,RSE,RSE,RE,RE,RE,RE,RE,RN
S,S,S,S,S,S,SBS[131|1],S,S,S,S,RSC[0;12;9],RNC[0;12;9],S,PN,S,S,S,S,S,S,S,S,S
N,N,N,N,N,N,N,N,N,N,S,RS,RN,S,S,S,S,S,S,S,S,S,S,S
N,N,N,N,N,N,N,N,N,N,S,RS,RN,S,S,N,N,N,N,N,N,N,N,N
N,N,N,N,N,N,N,N,N,N,S,RS,RNE,PW,S,N,N,N,N,N,N,N,N,N
N,N,N,N,N,N,N,N,N,N,S,RS,RN,S,S,N,N,N,N,N,N,N,N,N
N,N,N,N,N,N,N,N,N,N,S,RS,RN,S,N,N,N,N,N,N,N,N,N,N
N,N,N,N,N,N,N,N,N,N,S,RS,RN,S,N,N,N,N,N,N,N,N,N,N
N,N,N,N,N,N,N,N,N,N,S,RS,RN,S,N,N,N,N,N,N,N,N,N,N
N,N,N,N,N,N,N,N,N,N,S,RS,RN,S,N,N,N,N,N,N,N,N,N,N
N,N,N,N,N,N,N,N,N,N,S,RS,RN,S,N,N,N,N,N,N,N,N,N,N
N,N,N,N,N,N,N,N,N,N,S,RE,RN,S,N,N,N,N,N,N,N,N,N,N